<?xml version="1.0" encoding="utf-8"?>
<!-- Generator: Adobe Illustrator 17.0.0, SVG Export Plug-In . SVG Version: 6.00 Build 0)  -->
<!DOCTYPE svg PUBLIC "-//W3C//DTD SVG 1.0//EN" "http://www.w3.org/TR/2001/REC-SVG-20010904/DTD/svg10.dtd">
<svg version="1.0" id="Слой_1" xmlns="http://www.w3.org/2000/svg" xmlns:xlink="http://www.w3.org/1999/xlink" x="0px" y="0px"
	 width="40px" height="40px" viewBox="0 0 40 40" enable-background="new 0 0 40 40" xml:space="preserve">
<g>
	<g>
		<path d="M20.043,0.527C9.041,0.527,0.122,9.27,0.122,20.055c0,10.785,8.919,19.528,19.921,19.528
			c11.002,0,19.921-8.743,19.921-19.528C39.964,9.27,31.045,0.527,20.043,0.527z M20.043,37.639c-9.886,0-17.929-7.93-17.929-17.631
			c0-9.7,8.043-17.591,17.929-17.591s17.929,7.891,17.929,17.591C37.972,29.709,29.929,37.639,20.043,37.639z M18.578,28.835h2.506
			v-2.484h-2.506V28.835z M20.014,11.194c-1.459,0-2.661,0.387-3.606,1.159c-0.945,0.772-1.404,2.32-1.38,3.601l0.037,0.072h2.286
			c0-0.764,0.26-1.863,0.778-2.257c0.519-0.394,1.147-0.591,1.885-0.591c0.85,0,1.505,0.227,1.963,0.681
			c0.458,0.453,0.687,1.103,0.687,1.947c0,0.708-0.169,1.314-0.51,1.815c-0.341,0.502-0.913,1.218-1.715,2.15
			c-0.827,0.733-1.337,1.322-1.532,1.768c-0.194,0.446-0.296,1.246-0.303,2.401h2.395c0-0.724,0.047-1.258,0.14-1.6
			c0.093-0.343,0.358-0.729,0.796-1.159c0.94-0.892,1.696-1.764,2.268-2.616c0.571-0.852,0.857-1.791,0.857-2.819
			c0-1.433-0.442-2.55-1.326-3.35C22.85,11.594,21.61,11.194,20.014,11.194z"/>
	</g>
</g>
</svg>
