<?xml version="1.0" encoding="utf-8"?>
<!-- Generator: Adobe Illustrator 17.0.0, SVG Export Plug-In . SVG Version: 6.00 Build 0)  -->
<!DOCTYPE svg PUBLIC "-//W3C//DTD SVG 1.0//EN" "http://www.w3.org/TR/2001/REC-SVG-20010904/DTD/svg10.dtd">
<svg version="1.0" id="Слой_1" xmlns="http://www.w3.org/2000/svg" xmlns:xlink="http://www.w3.org/1999/xlink" x="0px" y="0px"
	 width="40px" height="40px" viewBox="0 0 40 40" enable-background="new 0 0 40 40" xml:space="preserve">
<path fill="#FFFFFF" d="M20.023,0.01C8.985,0.01,0.038,8.957,0.038,19.994c0,11.037,8.947,19.985,19.985,19.985
	c11.037,0,19.985-8.947,19.985-19.985C40.007,8.957,31.06,0.01,20.023,0.01z M25.99,12.318l-2.163,0.001
	c-1.696,0-2.025,0.806-2.025,1.989v2.608h4.046l-0.527,4.086h-3.519v10.483h-4.219V21.002h-3.528v-4.086h3.528v-3.013
	c0-3.497,2.135-5.4,5.255-5.4c1.494,0,2.778,0.111,3.153,0.161V12.318z"/>
</svg>
