<?xml version="1.0" encoding="utf-8"?>
<!-- Generator: Adobe Illustrator 17.0.0, SVG Export Plug-In . SVG Version: 6.00 Build 0)  -->
<!DOCTYPE svg PUBLIC "-//W3C//DTD SVG 1.0//EN" "http://www.w3.org/TR/2001/REC-SVG-20010904/DTD/svg10.dtd">
<svg version="1.0" id="Слой_1" xmlns="http://www.w3.org/2000/svg" xmlns:xlink="http://www.w3.org/1999/xlink" x="0px" y="0px"
	 width="136.063px" height="133.728px" viewBox="0 0 136.063 133.728" enable-background="new 0 0 136.063 133.728"
	 xml:space="preserve">
<g>
	<defs>
		<rect id="SVGID_1_" width="136.063" height="133.728"/>
	</defs>
	<clipPath id="SVGID_2_">
		<use xlink:href="#SVGID_1_"  overflow="visible"/>
	</clipPath>
	<path clip-path="url(#SVGID_2_)" fill="#FFFFFF" d="M109.541,123.452c-0.532-4.367-7.239-9.775-10.962-12.226
		c-8.216-5.415-18.831-8.421-28.265-11.606c-10.154-3.423-20.431-6.535-30.71-9.611c-7.043-2.11-15.201-4.635-21.903-10.495
		c-6.035-5.276-8.388-12.141-10.397-18.952c4.024,13.629,26.434,18.957,39.208,22.689c9.439,2.762,18.788,5.781,28.251,8.491
		c8.17,2.345,18.106,5.29,25.738,11.931C107.401,109.67,108.725,116.784,109.541,123.452 M92.202,118.972
		c-4.364-3.622-9.365-6.382-14.728-8.644c-11.645-4.906-24.291-7.152-36.361-10.943c-8.375-2.632-22.134-6.898-24.908-15.535
		c1.622,5.047,3.519,10.176,8.298,14.172c5.951,4.985,14.942,7.804,22.448,10.269c10.842,3.568,21.815,6.813,32.42,10.951
		c8.24,3.213,16.156,7.111,20.442,14.486C98.89,128.73,97.577,123.438,92.202,118.972 M131.383,94.901
		c4.987-15.941-14.969-26.821-34.021-33.129c-17.276-5.718-38.267-12.851-45.418-26.321c-4.583-8.648-2.211-19.039,4.556-26.999
		c4.053-4.774,11.854-9.608,21.009-8.205c7.589,1.163,13.938,7.591,9.813,12.518c-0.409,0.489-0.911,0.923-1.482,1.316
		c1.662,3.182,4.28,6.633,8.437,9.228c0,0-25.905,0.567-31.194-14.679c-6.005,6.537-7.015,16.164-1.989,22.977
		c3.1,4.209,7.517,7.207,12.097,9.603c9.767,5.094,20.647,7.73,31.057,11.134c8.899,2.91,18.87,5.918,25.618,12.747
		c1.269,1.289,2.336,2.632,3.199,4.024C137.861,76.809,136.613,86.818,131.383,94.901 M80.474,10.677c0,0.862,0.696,1.56,1.56,1.56
		c0.858,0,1.556-0.698,1.556-1.56s-0.698-1.562-1.556-1.562C81.17,9.115,80.474,9.815,80.474,10.677 M112.309,86.911
		c-9.289-8.06-21.49-11.32-31.469-13.883c-22.869-5.877-48.672-9.982-68.467-22.874C7.34,46.876,3,42.531,0,37.475
		c2.495,8.432,5.38,16.872,12.529,23.112c9.188,8.019,21.408,11.571,33.271,14.598c12.089,3.09,24.069,6.409,35.954,10.126
		c10.255,3.208,21.031,6.595,29.701,12.701c4.853,3.42,9.742,9.003,10.241,14.47C120.94,104.207,120.7,94.183,112.309,86.911"/>
</g>
</svg>
