<?xml version="1.0" encoding="utf-8"?>
<!-- Generator: Adobe Illustrator 17.0.0, SVG Export Plug-In . SVG Version: 6.00 Build 0)  -->
<!DOCTYPE svg PUBLIC "-//W3C//DTD SVG 1.0//EN" "http://www.w3.org/TR/2001/REC-SVG-20010904/DTD/svg10.dtd">
<svg version="1.0" id="Слой_1" xmlns="http://www.w3.org/2000/svg" xmlns:xlink="http://www.w3.org/1999/xlink" x="0px" y="0px"
	 width="40px" height="40px" viewBox="0 0 40 40" enable-background="new 0 0 40 40" xml:space="preserve">
<path d="M31.667,11.199l7.043,12.999H24.624L31.667,11.199z M8.191,11.199l7.043,12.999H1.148L8.191,11.199z M23.248,7.654h9.005
	c0.33,0,0.587-0.259,0.587-0.591V5.881c0-0.332-0.257-0.591-0.587-0.591h-9.005c-0.495-1.385-1.779-2.364-3.32-2.364
	c-1.541,0-2.824,0.979-3.32,2.364H7.604c-0.33,0-0.587,0.259-0.587,0.591v1.181c0,0.333,0.257,0.591,0.587,0.591h9.005
	c0.348,0.997,1.155,1.809,2.146,2.16v23.839H7.604c-0.33,0-0.587,0.258-0.587,0.591v1.182c0,0.332,0.257,0.591,0.587,0.591h24.649
	c0.33,0,0.587-0.259,0.587-0.591v-1.182c0-0.332-0.257-0.591-0.587-0.591H21.103V9.814C22.093,9.464,22.9,8.651,23.248,7.654z
	 M19.929,7.949c-0.807,0-1.467-0.665-1.467-1.478c0-0.812,0.66-1.477,1.467-1.477c0.807,0,1.467,0.665,1.467,1.477
	C21.396,7.285,20.736,7.949,19.929,7.949z M39.883,24.199L39.883,24.199c0-0.72-6.401-12.132-7.189-13.572
	c-0.202-0.369-0.605-0.609-1.027-0.609c-0.422,0-0.825,0.24-1.027,0.609c-0.789,1.44-7.189,12.852-7.189,13.572l0,0
	c0,3.804,5.227,5.318,8.216,5.318S39.883,28.003,39.883,24.199z M16.408,24.199c0-0.72-6.401-12.132-7.189-13.572
	c-0.202-0.369-0.605-0.609-1.027-0.609c-0.422,0-0.825,0.24-1.027,0.609c-0.789,1.44-7.189,12.852-7.189,13.572l0,0
	c0,3.804,5.227,5.318,8.216,5.318S16.408,28.003,16.408,24.199z"/>
</svg>
