<?xml version="1.0" encoding="utf-8"?>
<!-- Generator: Adobe Illustrator 17.0.0, SVG Export Plug-In . SVG Version: 6.00 Build 0)  -->
<!DOCTYPE svg PUBLIC "-//W3C//DTD SVG 1.0//EN" "http://www.w3.org/TR/2001/REC-SVG-20010904/DTD/svg10.dtd">
<svg version="1.0" id="Слой_1" xmlns="http://www.w3.org/2000/svg" xmlns:xlink="http://www.w3.org/1999/xlink" x="0px" y="0px"
	 width="39.991px" height="34.871px" viewBox="0 0 39.991 34.871" enable-background="new 0 0 39.991 34.871" xml:space="preserve">
<g>
	<g>
		<path d="M24.426,0.559c-0.745-0.745-1.953-0.745-2.698,0c-0.746,0.745-0.746,1.952,0,2.698l11.348,12.17H1.909
			C0.854,15.428,0,16.283,0,17.337s0.854,1.907,1.909,1.907h31.289l-11.231,12.37c-0.745,0.746-0.745,1.953,0,2.698
			c0.373,0.372,0.861,0.559,1.349,0.559c0.488,0,0.977-0.187,1.349-0.559l15.326-16.935L24.426,0.559z"/>
	</g>
</g>
</svg>
