<?xml version="1.0" encoding="utf-8"?>
<!-- Generator: Adobe Illustrator 17.0.0, SVG Export Plug-In . SVG Version: 6.00 Build 0)  -->
<!DOCTYPE svg PUBLIC "-//W3C//DTD SVG 1.1//EN" "http://www.w3.org/Graphics/SVG/1.1/DTD/svg11.dtd">
<svg version="1.1" id="Слой_1" xmlns="http://www.w3.org/2000/svg" xmlns:xlink="http://www.w3.org/1999/xlink" x="0px" y="0px"
	 width="40px" height="40px" viewBox="0 0 40 40" enable-background="new 0 0 40 40" xml:space="preserve">
<g>
	<g>
		<path d="M33.255,0.112H7.483c-2.046,0-3.711,1.66-3.711,3.701v32.439c0,2.041,1.665,3.701,3.711,3.701h25.771
			c2.046,0,3.711-1.66,3.711-3.701V3.813C36.965,1.772,35.3,0.112,33.255,0.112z M34.964,36.252c0,0.924-0.783,1.705-1.71,1.705
			H7.483c-0.926,0-1.71-0.781-1.71-1.705V3.813c0-0.924,0.783-1.705,1.71-1.705h25.771c0.926,0,1.71,0.781,1.71,1.705V36.252z
			 M29.256,5.75H11.482c-0.725,0-1.326,0.599-1.326,1.323v2.822c0,0.723,0.601,1.322,1.326,1.322h17.775
			c0.725,0,1.326-0.599,1.326-1.322V7.073C30.582,6.35,29.981,5.75,29.256,5.75z M28.237,22.649c-1.211,0-2.215,1.001-2.215,2.209
			v7.443c0,1.208,1.004,2.209,2.215,2.209s2.215-1.001,2.215-2.209v-7.443C30.451,23.65,29.448,22.649,28.237,22.649z
			 M28.237,14.423c-1.229,0-2.215,0.984-2.215,2.209c0,1.225,0.987,2.209,2.215,2.209c1.228,0,2.215-0.984,2.215-2.209
			C30.451,15.407,29.465,14.423,28.237,14.423z M20.442,30.092c-1.229,0-2.215,0.984-2.215,2.209c0,1.225,0.986,2.209,2.215,2.209
			c1.228,0,2.215-0.984,2.215-2.209C22.657,31.075,21.671,30.092,20.442,30.092z M20.442,22.257c-1.229,0-2.215,0.984-2.215,2.209
			c0,1.225,0.986,2.209,2.215,2.209c1.228,0,2.215-0.983,2.215-2.209C22.657,23.241,21.671,22.257,20.442,22.257z M20.442,14.423
			c-1.229,0-2.215,0.984-2.215,2.209c0,1.225,0.986,2.209,2.215,2.209c1.229,0,2.215-0.984,2.215-2.209
			C22.657,15.407,21.671,14.423,20.442,14.423z M12.648,14.423c-1.228,0-2.215,0.984-2.215,2.209c0,1.225,0.986,2.209,2.215,2.209
			c1.229,0,2.215-0.984,2.215-2.209C14.863,15.407,13.877,14.423,12.648,14.423z M12.648,22.257c-1.228,0-2.215,0.984-2.215,2.209
			c0,1.225,0.986,2.209,2.215,2.209c1.229,0,2.215-0.983,2.215-2.209C14.863,23.241,13.877,22.257,12.648,22.257z M12.648,30.092
			c-1.228,0-2.215,0.983-2.215,2.209c0,1.225,0.986,2.209,2.215,2.209s2.215-0.984,2.215-2.209
			C14.863,31.075,13.877,30.092,12.648,30.092z"/>
	</g>
</g>
</svg>
