<?xml version="1.0" encoding="utf-8"?>
<!-- Generator: Adobe Illustrator 17.0.0, SVG Export Plug-In . SVG Version: 6.00 Build 0)  -->
<!DOCTYPE svg PUBLIC "-//W3C//DTD SVG 1.1//EN" "http://www.w3.org/Graphics/SVG/1.1/DTD/svg11.dtd">
<svg version="1.1" id="Слой_1" xmlns="http://www.w3.org/2000/svg" xmlns:xlink="http://www.w3.org/1999/xlink" x="0px" y="0px"
	 width="40px" height="40px" viewBox="0 0 40 40" enable-background="new 0 0 40 40" xml:space="preserve">
<path d="M4.851,37.177H4.684c-0.861,0-1.634-0.655-1.838-1.556l-0.024-0.155c-0.124-0.865,0.375-1.445,0.679-1.797l0.114-0.135
	c0.203-0.231,0.388-0.434,0.578-0.639c1.08-1.179,2.105-2.298,2.885-4.676c-4.454-2.777-6.991-6.805-6.991-11.146
	c0-8.07,8.95-14.634,19.951-14.634s19.951,6.565,19.951,14.634c0,8.069-8.95,14.634-19.951,14.634c-0.886,0-1.813-0.045-2.76-0.135
	c-2.834,2.442-6.14,4.159-9.836,5.106c-0.718,0.201-1.576,0.368-2.53,0.492L4.851,37.177z M20.037,4.353
	c-9.953,0-18.051,5.706-18.051,12.719c0,3.842,2.437,7.441,6.687,9.874l0.647,0.37l-0.202,0.722
	c-0.925,3.313-2.31,4.823-3.531,6.156c-0.179,0.196-0.357,0.39-0.533,0.589l-0.119,0.14c-0.071,0.082-0.171,0.199-0.217,0.27
	c0.828-0.037,1.589-0.186,2.233-0.366c3.557-0.911,6.705-2.581,9.38-4.966l0.313-0.28l0.417,0.045
	c1.026,0.11,2.026,0.165,2.974,0.165c9.953,0,18.051-5.706,18.051-12.719C38.088,10.059,29.991,4.353,20.037,4.353z"/>
</svg>
